Data for Preceptor's Primer for Bayesian Data Science • PPBDS.data
…
remotes::install_github("davidkane9/PPBDS.data")

In order to run these tutorials, you must install the learnrhash package, created by Colin Rundel.

remotes::install_github("rundel/learnrhash")

Loading Preceptor’s Data

After installing the package, it loads as any package should.

library(tidyverse) 
library(PPBDS.data)

qscores
#> # A tibble: 748 x 8
#>    course_name department course_number term  enrollment hours rating instructor
#>    <chr>       <chr>      <chr>         <chr>      <int> <dbl>  <dbl> <chr>     
#>  1 " Introduc… AFRAMER    100Y          2019S         49   2.6    4.2 Jesse McC…
#>  2 " American… AFRAMER    123Z          2019S         49   3.6    4.4 Cornel We…
#>  3 " Urban In… AFRAMER    125X          2019S         40   5.2    4.5 Elizabeth…
#>  4 " Richard … AFRAMER    130X          2019S         23   7.2    4.4 Glenda Ca…
#>  5 " 19th cen… AFRAMER    131Y          2019S         20   3.5    4.9 Linda Cha…
#>  6 " Social R… AFRAMER    199X          2019S         19   7.2    4.8 Alejandro…
#>  7 " Martin L… AFRAMER    199Y          2019S         40   4.2    4.7 Brandon M…
#>  8 " Elementa… AFRIKAAN   AB            2019S         22   2.9    4.9 John M Mu…
#>  9 " Elementa… JAMAICAN   AB            2019S         18   1.5    4.9 John M Mu…
#> 10 " Elementa… WSTAFRCN   AB            2019S         29   2.6    4   John M Mu…
#> # … with 738 more rows
…
