…
``` r
remotes::install_github("davidkane9/PPBDS.data")
```

## Loading Preceptor’s Data:

After remote-installing the package, it loads as any package should.

``` r
library(tidyverse) # the tidyverse is your new best friend
library(PPBDS.data)

qscores
#> # A tibble: 748 x 8
#>    course_name department course_number term  enrollment workload overall
#>    <chr>       <chr>      <chr>         <chr>      <int>    <dbl>   <dbl>
#>  1 " Introduc~ AFRAMER    100Y          2019S         49      2.6     4.2
#>  2 " American~ AFRAMER    123Z          2019S         49      3.6     4.4
#>  3 " Urban In~ AFRAMER    125X          2019S         40      5.2     4.5
#>  4 " Richard ~ AFRAMER    130X          2019S         23      7.2     4.4
#>  5 " 19th cen~ AFRAMER    131Y          2019S         20      3.5     4.9
#>  6 " Social R~ AFRAMER    199X          2019S         19      7.2     4.8
#>  7 " Martin L~ AFRAMER    199Y          2019S         40      4.2     4.7
#>  8 " Elementa~ AFRIKAAN   AB            2019S         22      2.9     4.9
#>  9 " Elementa~ JAMAICAN   AB            2019S         18      1.5     4.9
#> 10 " Elementa~ WSTAFRCN   AB            2019S         29      2.6     4  
#> # ... with 738 more rows, and 1 more variable: prof_name <chr>
```
…
